*** Life<FredkinCell> 15x15 ***

Generation = 0, Population = 24.
---------------
0--000-----0---
--0--0------0--
0--------0-----
---------------
0------0-0-----
--00-------0---
---------------
---------------
--0--0--0------
--0-----0---0--
---------------
-------------0-
0--------------
---------------

Generation = 1, Population = 70.
0--000-----0---
-0-1--0---0----
-0---10--0---0-
-00--0--0-0-0--
-------0-------
-000--0---00---
00110--0-00-0--
--00-------0---
--0--0--0------
-0100-0010--0--
-010-0-010-0-0-
--0-----0---00-
0-----------0-0
-0-----------0-
0--------------

Generation = 2, Population = 67.
--0--1------0--
-1-2-010-----0-
0--00--0--0---0
0-1001---0-----
---0-0-----00--
--1--0-0---1---
11--10---1---0-
0-1--0-000-----
---0----1--00--
0--11-11--0----
0---0-0------10
0-1--0--1------
--0-----0--01--
0-0------------
-------------0-

Generation = 3, Population = 116.
----02-0---0---
--030---0-0----
1--1-1-10--0---
1-2-1-000--00-0
0-010-00-00-10-
0-------0002-0-
-211210--2000-0
10---1-11-0000-
---1-0002--110-
101----2-0--000
-01-101-1-0-021
1-20---020-0000
-0-0-0-0100120-
--10----0--000-
0-0---------0-0

Generation = 4, Population = 60.
--0--3------0--
0114-0-01--0---
2002--0-10-1--0
--3-21-------0-
---------------
1----0--1----1-
1----21-0------
2--------0-----
-------------1-
21--1-13----1--
0-202-2-2--01-2
---------------
---------1---1-
0---00--1------
--1-----0---10-

Generation = 5, Population = 111.
0-1-04000----0-
-2---111--01--0
-1---1-1-1-20--
1-4032--00-00--
0-0-0---0------
20--01-020--0-0
-2--2-2-1----0-
30---10---0--0-
-0--0-00-0----0
-2--2--4----2-0
103---30-001---
1-200-0-20-0000
0---00----0-2-0
-01011002---0--
00-000-010-0210

*** Life<FredkinCell> 15x15 ***

Generation = 0, Population = 22.
---------------
---------------
---0-----------
-------0----0--
0---0000-------
---------------
---------------
--------000----
-0-0-----0-----
0------------0-
-----0---0-----
---------------
0--00------0---
---------------
---------------

Generation = 1, Population = 63.
---------------
---0-----------
--0-0--0----0--
0--000-10--0-0-
-0-01---0---0--
0---0000-------
--------000----
-0-0---01110---
----0----1---0-
---0-0------0-0
0---0-0-0-0--0-
0--000---0-0---
-00110----0-0--
0--00------0---
---------------

Generation = 2, Population = 66.
---0-----------
-------0----0--
00--1-01-------
-----1---00---0
0---200010-----
-------1000-0--
00-00000-1-----
0-----012-2100-
-0-0---0-2-0---
0-0-----0000---
10-01----0-----
1------------0-
01----0------0-
---------------
0--00------0---

Generation = 3, Population = 111.
--0-0--0----0--
00-00--10--0-0-
1100-01-000-0-0
-0--020---10-0-
-0-031-1210-0-0
-0-0--021-1--0-
-1-1--11-200-0-
10--0---3-32-10
0-0-0--1-3---0-
1--00---1---0--
210120---1-0-0-
-0-00-0--0--010
-20--0-0----010
-0-00-0----0-0-
-00110----0-0--

Generation = 4, Population = 60.
0--01001-------
---------------
-------1-------
---0-----021--0
0---4---3-10---
0------------1-
---2-0---3-----
----1001-----21
-0-0-00----0-1-
--0-1----0---0-
-2---1---2---1-
--------010----
03111---00-----
0------------1-
0--221---0-0---

Generation = 5, Population = 108.
-001---20------
0--0000--------
---0--1-0000--0
0-0----1-13-00-
10---1-1-1--000
10-000--10100-0
0-0-01-10-0---0
-0-02-1231-20-2
0-0------30----
-0-0-00-11000-0
2-----0-----020
1-0000-0--10-1-
----20-0-----1-
--0--0--0--00-0
1003-20-0---00-

*** Life<FredkinCell> 15x15 ***

Generation = 0, Population = 22.
---0-----------
-----0---------
---------------
0----0-----0---
-----------0---
-----0---------
-0------0----0-
------0------0-
-0-----0-------
---------------
0--0------0----
0-0-------0-0--
---0-----------
---------------
---------------

Generation = 1, Population = 64.
--0-00---------
---00-0--------
0----------0---
-0--0-0---010--
0---------010--
-0--0-0-0--0-0-
0-0--000-0--010
-----0--0---010
0-0-----0----0-
00-0---0--0----
10--0----0100--
1--0-----01--0-
0---0-----0-0--
---0-----------
---------------

Generation = 2, Population = 71.
-0-0-1---------
0--1-0-0---0---
---0-------1---
0-00---0-0---0-
-0------00-----
0--0-010---1-1-
-0-0--11--0----
----01--1--0---
10---0--100--1-
1-0---0---1-00-
2-00-0-00---1--
--0-0---0-2-0-0
10-0-0----1----
0-0-------0-0--
---0-----------

Generation = 3, Population = 95.
---1-200---0---
--0--1--0-010--
----00---00200-
-01-0-0-01010-0
0----0001-01---
-001-12--0----0
---1-0---0-0-1-
0---1---2-0-01-
-1---1-0-----20
-01--0----2---0
3-110-01-0-0--0
--1--0--1-3-1--
-1--0-0-00-0--0
10-0-0---01--0-
0---0-----0-0--

Generation = 4, Population = 54.
-------1---1---
-0-------0-----
-0-0----0----1-
-12-1-10-2---0-
-0-0-----------
-1---2---1-----
00-201---10-02-
-----1---0-012-
-2---2---------
-----1---------
-02-1-120----01
1-2-0-0-2----0-
-2-------------
---------------
1---------1----

Generation = 5, Population = 100.
-0----0-000-0--
0101---0--01-0-
0-0---0--0--020
023---210-0-010
0-0--000-----0-
--0--32-02--01-
1--3-21-0210--0
0--0--0-21012-0
1-0-0-0--0-002-
--1--2-00----00
-1--20---0--1-2
--3-1-1030--11-
----0-0-0----0-
10--------1----
-0-------0-0---

*** Life<FredkinCell> 15x15 ***

Generation = 0, Population = 24.
---------0-----
---------0-----
0----------0---
00------0------
-0---0----00---
---0-----------
-----0---------
------00---0---
---------------
---------0-----
---------0--0--
-------00------
-00------------
----------0----
---------------

Generation = 1, Population = 73.
--------010----
0-------0100---
1-------000-0--
--0--0-0-00----
-1000-0-00110--
-00-0-----00---
---00--0---0---
------110-0-0--
------00-0-0---
--------010-0--
-------0-100-0-
-00---011---0--
0110---00-0----
-00------0-0---
----------0----

Generation = 2, Population = 69.
0------0-2-----
10-----01--1---
200--0----10-0-
0-1---0--11----
0----0-011-210-
0----0000--1---
-0-1-0-1--01---
---000--10---0-
-----0---1--0--
------001------
-00----1--11--0
-----01--------
1--10----0--0--
-------0----0--
-00------------

Generation = 3, Population = 121.
1-----010-00---
2----00-2--200-
31-00--00-----0
-020-0-----00--
-10-01--2-1--10
1--001-------0-
---20-020-1-00-
-00--11-2--0--0
---0-1-00200---
-00---112-000-0
0110-002-12200-
0000-12--0000-0
-1121-000-0010-
00000-0-00-010-
0110---0----0--

Generation = 4, Population = 63.
20--------1--0-
---0-1---1---1-
--0-10-1-0-----
-13--100---11--
-----200------1
-------0-------
00---------11--
0110------01---
--0--2----11---
---0-0----1--0-
--------0----10
---10-31----1--
12---01--------
------1--10---0
-22------0--1--

Generation = 5, Population = 133.
3100-0-----0010
20--020022--020
--102102-11000-
02-0-2110112200
-10-0-112--211-
10---1-10--10-0
---2---2----20-
-22101---0-2---
0-10030--22-00-
-----11-212-01-
----000--12---1
000211-2---0--0
2312-12--00-1-0
0-0---200-1010-
0330--0-01-0-00

*** Life<FredkinCell> 15x15 ***

Generation = 0, Population = 22.
--0-0--0-----0-
----0----------
---------------
---------------
--0---0--0-----
-0-------------
-0----0--------
------0--------
0-0-----0------
---------------
-0-------------
------0--0--0--
------0--------
--0--0---------
---------------

Generation = 1, Population = 69.
-0--100-0---0-0
--0010-0-----0-
----0----------
--0---0--0-----
---0-0-00-0----
01-------0-----
010--010-------
000--0100------
---0--00-0-----
000-----0------
0-0---0--0--0--
-0---0100-00-0-
--0---10-0--0--
-0-00----------
--0--0---------

Generation = 2, Population = 61.
0----110-0-0-0-
--1---0--------
----1-00-0---0-
-0--0----------
00----011--0---
---0--0--------
1--00-2--0-----
-1--0---1------
--0-0-----0----
---------0--0--
1-10--1-0------
--0-01-11-11--0
-0--0---0------
0--11-00-0--0--
------0--------

Generation = 3, Population = 104.
-00-1221------0
00-01--0---0---
-0002--1--0-0-0
-10010--00-0-0-
1-0000--200-0--
-101-0--00-0---
--0---30--0----
-----010--0----
----10--0--00--
0--00-0----0-0-
---1---01-000-0
0-10-2122-2200-
------101-000-0
--02---10-00-0-
0--0001--0--0--

Generation = 4, Population = 61.
--10----0--0-0-
11--2---0------
-11-3-02-----0-
------0--------
--1-11013-1----
-2--01---------
--1--0----1----
--0---2--01-0--
0-----0--0--1--
-00--0---------
-----01--------
--2--32-3-3--10
0-------2-1----
001--00--0-----
-0----2--------

Generation = 5, Population = 102.
0-21---1100---0
2-1-300-10-0---
--2-4--3----0-0
-1-----00-0--0-
-----21-4--0---
0-01-2-00------
--20-1----200--
0110--301---10-
------1001-020-
-110010--0--0--
-0--01-01-0--00
00-00---4-42021
1------03020-00
-12211-1-------
-1----30-0-----

*** Life<FredkinCell> 15x15 ***

Generation = 0, Population = 24.
-------0-0-----
--0------------
0-0-------0----
---------0---0-
-0--------0----
--------0-0-0--
---------------
-00------------
--0-------0----
---------------
-0-------0-0---
----00---------
---------0--0--
---------------
---------------

Generation = 1, Population = 71.
--0---0---0----
0010---0-00----
--10-------0-0-
000-----0-0-0-0
0-0-----0-1000-
-0-----0--1--0-
-00-----0-0-0--
01-0------0----
--10-----0-0---
-00------000---
0-0-00--0---0--
-0-0110----00--
----00--0-00-0-
---------0--0--
---------------

Generation = 2, Population = 75.
0-1--0----10---
1---0----1---0-
-02-0--0000-0--
--1----01-1-1--
1-10----1-2-1--
-10---0-00--010
-11------------
1--10---0-1-0--
00--0---01-10--
-11-00---------
--10---0--0010-
--01--10-------
-0-----0-01---0
----00---------
---------0--0--

Generation = 3, Population = 112.
1--0--0---2100-
2--01--0-200--0
-1--100-11--1--
0---0-0-20---0-
-0210-0--03---0
--1--0---1-0--1
----0-0--00--00
21-2-0-010-010-
-------0-202-0-
---0-100000--0-
--2--0-1001--10
----112100-0000
0--000-1-120-0-
-0-01100--0-0-0
----00--0-00-0-

Generation = 4, Population = 73.
2011-0-----2-1-
3-1---0-0-1-0--
0-2-2--0-2----0
-01--0---1-----
-13--010-14---1
--2-0-0-0---0--
011------110---
32--0-0--1---1-
00-------31-0-0
--------1-1-0--
-0-----2-----2-
0-0-----11-----
--0--1--0-3--10
---------------
-0---------10--

Generation = 5, Population = 99.
--22----0---0-0
-0--1--0-2-0--0
11------13--10-
--20-1--2------
1-41--211-5010-
01---010-1---11
-2-0-------1-0-
43-2---01-10---
--1-0-0-----10-
0--------02-1-0
------0-001---0
-011-1---2----0
00100-0111-0021
-00--1--0-00000
0-0-------0210-

*** Life<FredkinCell> 15x15 ***

Generation = 0, Population = 23.
-----------0---
0--------------
-------0-------
------0--------
0--0---------0-
--0------------
---------------
----00---------
-00------------
---0-----------
--0-----0------
---------0--0--
--0-0----00----
------0------0-
---------------

Generation = 1, Population = 63.
0---------0-0--
-0-----0---0---
0-------0------
0--0-0-------0-
-0--0-0-----0-0
00-----------0-
--0-00---------
-000110--------
011-00---------
-00-0---0------
-0-----0----0--
----0----1-0-0-
-0---00-0-1000-
--0-00-0-00-0-0
------0------0-

Generation = 2, Population = 68.
-------0-0-0-0-
0-0---0--------
1--0-0---0-0-0-
1-0-0---0------
010--0-0---0---
1----00--------
0010---------0-
------10-------
1-201---0------
-1--1----0--0--
01----0--0-----
---0--00--01-10
0---0-10---11--
----1---01-01--
--0-0----00----

Generation = 3, Population = 90.
0-0-----------0
1--------------
-00-0---------0
-010-0-------0-
1--0-10---0-0--
-0-00-1----0-0-
---100-0----0-0
-0--1121-----0-
-13--00-----0--
02--200--100-0-
1-00001-01-0000
-00--01-0-1-021
-0--1----0-2--0
0-00-00-1-0--0-
-0--10----1-0--

Generation = 4, Population = 62.
1--0---------0-
2---0----------
---0-----------
--2-01----0----
-1--0--0-0-0-0-
---1--2--------
--1----10------
01----3-0---0--
-240111--00--0-
--0---10-----1-
2---1-2-----1--
----0---1----32
-10--0--0----01
--11--1--11----
----2---002----

Generation = 5, Population = 97.
200---------0-0
30-0-0-------0-
1---00----0----
---0-200-----0-
1---1-----0---0
-0---0-000-0-0-
0-----02-0--0--
1-001-411-00---
--5---2--110-10
0-1---21010--20
-1002-3-0--0-00
00001-1021-----
02-----01-1-1--
---2---01--0-00
--0--00011-0---

*** Life<FredkinCell> 15x15 ***

Generation = 0, Population = 25.
--0---0--0-----
--------0------
--0------0--0--
---------0-0---
--0-----0--0---
---------------
0----0---------
---------------
-------0-------
-----0-----00--
----0-----0----
----0-----0----
-----------0-0-
---------0-----
---------------

Generation = 1, Population = 62.
-0-0-0-0--0----
------00-0--0--
-0-0-----10--0-
---------1-1---
-0-0---0--010--
0-0--0--0--0---
-0--0-0--------
0----0-0-------
-----00-0--00--
------00---110-
---01----01-0--
---010---01--0-
----0----0----0
--------0-00-0-
---------0-----

Generation = 2, Population = 73.
0-----010--00--
------1--100---
0---0-00021---0
-------002-2-0-
--0-000---1-10-
---------0-1---
0--0----0--0---
-----1-----00--
0---0----00----
---00--1-0---10
--0---000--010-
--0--10-01-0---
----1----100-0-
----0--0--11---
-----------0-0-

Generation = 3, Population = 98.
-0---0--1---10-
----00-00-1---0
-0-0---11--0---
0-0--00-1---01-
-0--1-1-00--2-0
0-00000---02-0-
-00-00-0--0----
---0--0-00--10-
-0--1--00-1-000
0--1-0-201-1--1
-01-1--1-01----
-010-2-0--1----
--002-00--11--0
---0100-0--20--
----0--0---1--0

Generation = 4, Population = 64.
0-0--10-200021-
----1---1---0--
--0-----22---00
-----1-0-----2-
0-0-2----1--3--
-----1--0--30--
-1--------1-0--
----0----100---
--00----1--0-1-
-0-----31-----2
-----00-0-----0
0-----0-0-----0
---------1---0-
---------0-310-
----1-----02-0-

Generation = 5, Population = 91.
---0-21-----320
0--0--10-11-100
-0-000---31---1
0------------3-
-----0-0--1-4--
000---00---410-
0-0-00--0-2-10-
-00--1---21--0-
--11----2--1---
0--1-0-421-1--3
00--11-1-0---0-
-0----1-1-----1
0-----0--211-1-
----1---011--10
---0-0----1-010

*** Life<FredkinCell> 15x15 ***

Generation = 0, Population = 24.
--------0------
---------------
-----000-------
----------0----
-----------0---
----0----------
--0------------
----0-0-0------
----0-0--0-----
-----------0---
0------0--0----
00-------------
-0----------0--
---0-----0-----
---------------

Generation = 1, Population = 63.
-------0-0-----
-----0000------
----01-10-0----
-----000-0-----
----0-------0--
--00-0-----0---
-0-0--0-0------
--001-1--------
---01-10--00---
0---0-00-0--0--
1-----0-00-----
--0----0--0-0--
-100-----0-0-0-
-00-0---0-0-0--
---0-----0-----

Generation = 2, Population = 66.
-----0-10-0----
----------0----
---012-2-0-0---
----0---0---0--
--0--000-0---0-
--1-0---0-0----
0-----1--0-0---
--1-----0-00---
0---2-2-0-11---
10--1-1-01---0-
200-001-1------
0-1------0-0---
0--1---0------0
0----0-0---0---
-0----------0--

Generation = 3, Population = 96.
----0--21-10---
---00---0-1----
--0123--0-0----
--0-1000-0-----
-01001-1------0
002----------0-
-0--00-00--10--
-0-01--010-10--
1-003-3--0--00-
2--0-0--12-00-0
31------20-0-0-
-02-0000----0-0
-1--000100---0-
1--00--10-0---0
--0--0-0-----0-

Generation = 4, Population = 72.
----1003---10--
----1----------
-0-2----1010---
----2---0-----0
----1-0200-----
1-------0--0---
-----1----0----
-11-2---2---1--
201--0--0-1111-
---11--0-3-----
---00-1----1--0
-13--11-0------
-2--111-11----0
---1-0-2-0-0-0-
00-----1--0-0--

Generation = 5, Population = 109.
---0---41-1210-
-0--2-00001-0--
0---2--2---10-0
-0--300--000-0-
0--02-1--100--0
-0--000-1---0--
000---1--0--0--
-----0-030--2--
31--3-3-102-220
20------1---000
-1---02-200-00-
0-4-0-2-1--0---
03--2--1--00---
1-0-0103010-0--
1100-0020--0---

*** Life<FredkinCell> 15x15 ***

Generation = 0, Population = 22.
-0-------------
---------------
-----0---------
--0---------00-
---------------
---00--------0-
---------------
---0-----0--0--
---0-----------
----0-0-----0--
0-----------0--
--0------------
--00---0-------
-----0---------
---------------

Generation = 1, Population = 70.
0-0------------
-0---0---------
--0-0-0-----00-
-0-0-0-----0110
--000-------0--
--0110------0-0
----0----0--00-
--010---0-00-0-
--01--0--0-----
0------0---010-
-00-0-0----010-
001----0----0--
-0-1000-0------
--000-00-------
-----0---------

Generation = 2, Population = 64.
-0-0-0---------
--0---------00-
-0-0---0-------
0--1------01-21
-----0---------
-0-2-10--0-0-0-
---0-----------
-0-2-000--11010
00---0------0--
---00-0-000-2-0
0------0--0---0
1----00-----1--
-1--1----0--0--
--11---1-------
--00---0-------

Generation = 3, Population = 112.
0-0---0-----00-
-0-0-0-0---0110
--010-0-0-000-0
--0200-0-012-32
00--01---00---0
0--3--100-----0
--0-0--0-00-0-0
-1-3---1002-1-1
1-0--10000-----
-00110-01---3-1
10-0000---10-01
2----11--000200
------000-0010-
------0200--0--
-0--0-010------

Generation = 4, Population = 64.
-0-------------
---10--------2-
---------0-----
0--3--0-0---143
-1-0-----------
1---1-2110--00-
0----0------1--
-----0-21---2-2
--11-----------
0-1221----0--02
--0-1---0-----2
3--0--2--1--3--
0-----11---1---
-0--001--1--1--
0-00---2----0--

Generation = 5, Population = 111.
0-000--------0-
-00210---0--1-0
0---0-0---0-0-0
--0400-----22-4
0--1---0-0----0
2----13--100-10
10---1---0-0--0
0-0301-320-13--
10-----00-0-00-
--23320-10-031-
-01-2-00--1-1-3
40---13---0--00
1--11-220-0-1--
0---1--20-0-20-
-011-0--00-010-

*** Life<FredkinCell> 15x15 ***

Generation = 0, Population = 25.
----0----------
-------------0-
--0----0-------
---------0-----
------0-0---0--
---------0-----
--0---------0--
----0-------0--
-------------0-
------0-----0--
-0-0--0--------
---------------
00-----0-0-----
--------0----0-
---------------

Generation = 1, Population = 72.
---0-0-------0-
--0-0--0----0-0
-0-0--0-00---0-
--0---00--0-0--
-----0---0-0-0-
--0---0---0----
-0-00----0-010-
--00-0-----01--
----0-0-----0-0
-0-0-010---0---
0---0010----0--
0--0--00-0-----
110---0-0-0--0-
00----------0-0
--------0----0-

Generation = 2, Population = 76.
----0-00-------
---------0-0---
0----01-11--0--
-------1-0-0-0-
----0-000---0-0
----0--0-0-00--
0---1-0-0-0-210
--1------00-2-0
-000--1----01--
--------0-0-0-0
1--011-100---0-
------1-0---00-
221--010-0-0---
------0---00---
00-----0-0-----

Generation = 3, Population = 120.
---0--1100-0---
0---00-0-1-----
-0--01202200---
0---0002-1-----
---01-1-10-010-
0--0-001--011--
-0002--0--103--
0-2-0----1-0-01
011100-0000120-
000-001-10-010-
-001-212-1--01-
-000002-10--1-0
3-2001-10-01-0-
--0---10-01-0--
110--------0---

Generation = 4, Population = 68.
0-0---22----0--
---------------
0-001-3----10--
----11------00-
--0-----2-0-210
-----11-----2--
0111---10-----0
1--------2----2
12----111---31-
--1------10--10
-1---3-3--0-1--
----1-------2--
-2311------2---
----0-2-01-----
2--0--00-0-----

Generation = 5, Population = 108.
---0-0330--0-0-
---00--0---0---
--1--1-0--02---
0----2--0-0-1--
-0-01-10----321
00-0022---013--
---220-21---311
-020--0-0-0-2-3
-3---02-20014-0
00-0-01--2-01-1
1-------0-1-2-0
--0-2--0--0-30-
33--211-000----
00001-301-10---
-10--0-1010----

*** Life<FredkinCell> 15x15 ***

Generation = 0, Population = 25.
-------------0-
---------------
------00-0-----
--0--0---------
---------------
-------00------
------------0--
-----------0---
---------------
-------------0-
0----------0---
0-0-000--------
------00-------
--0-0----0-0-0-
---------------

Generation = 1, Population = 63.
------------0-0
------00-0---0-
--0---11--0----
-0-00--0-0-----
--0--0-00------
------0110--0--
-------00----0-
----------0----
-----------0-0-
0----------00-0
100-000---0-00-
1---1------0---
0------100-0-0-
-0---0000-----0
--0-0----0-0-0-

Generation = 2, Population = 66.
------00-0-0-0-
--0--0---------
----00-200-0-0-
0--11---0------
------01-0--0--
--0---1--100---
----------0---0
-------000-----
0----------10--
1-0-000--------
2-1---10-0---1-
--002-0000-1---
1---00--11-1---
-----1-1-0---0-
------00-------

Generation = 3, Population = 111.
--0---11------0
-0-0-1--0------
0-0----311----0
-002--0010-000-
0-0000-201---0-
-0-0-02-1-11--0
--0---00001--0-
0-----01-1-00-0
100-0000000210-
--1-1----0-000-
3-----2-01000-0
-0---0-111-200-
-00----1-2-200-
0----20201000-0
------1-00---0-

Generation = 4, Population = 66.
------22-----0-
-------01------
--10-0----000--
01----1--1-1---
-------------1-
---10------200-
0-----1111-0--0
1---0-12-------
------11-------
--2-2--00--1---
--1-0--0----1--
-1--2-0-2203---
--10------03---
--0-03131--1---
0-----20---0---

Generation = 5, Population = 112.
-----03-----0-0
--00-1--200000-
0-21---31-1110-
12-2---01-02-0-
00-00-0--1---20
0-021021111----
10-0-0-2-2-1---
20-0--23-1-0--0
1-0--0-2---2---
-03-30-1100----
--2--0-10100-1-
1-0-3--13-1----
---100-1---40--
00101-2421--0--
-00-0-----010--

*** Life<FredkinCell> 15x15 ***

Generation = 0, Population = 24.
---------------
---0----0------
-------------0-
-0---0---------
-----0----0--0-
---------------
---------0--0--
---0---------0-
-0----0---0----
0-0----------0-
0-----------0--
---0-----------
----------0----
---0---------0-
---------------

Generation = 1, Population = 74.
---0----0------
--0-0--0-0---0-
-0-0-0--0---0-0
0-0-010---0----
-0--010--0-00-0
-----0---00-00-
---0----0-00---
-00-0-0--00---0
---0-0-0-0-0---
10-0--0---0---0
1000-------0---
0-0-0-----0-0--
---------0-0-0-
--0-0-----0-0-0
---0---------0-

Generation = 2, Population = 61.
-------------0-
------0---0----
-----1----00-0-
---0---00------
---0---001-1-0-
-0-0-1-------1-
-0---000--11-00
011--0-----0-0-
0--10----1--0--
--0-0------0-0-
211---0---0---0
1010-0---------
0-------0------
-0-0-0-----0---
----------0----

Generation = 3, Population = 93.
------0---0-0-0
-------0-01----
---00--000-1--0
--01010---0----
-00-010-12---10
01-1-2--000-0--
---001-1002--11
-22--1-0-0-101-
1-02----0-00-0-
--10100--0--0--
-22-0--0-0-----
2121----0-0---0
100----0-0-0---
------0-0---0--
-0-0-0---0-----

Generation = 4, Population = 65.
-----0----1----
---00--10---0--
------------00-
---2-2---0---0-
----------0--21
1-02----1----1-
0----2--1---0-2
-3-0-2-1-1---2-
-01---0---1--10
1-212-1--1-----
--3-1---01--0-0
---2---0-----0-
-1--------0---0
0-00---0-0---0-
0---------0-0--

Generation = 5, Population = 103.
---0--0000-00--
--011-0210101--
----01-000-1--0
--0---0-0------
0-0--1--1--1032
2-1302-0200--20
1-0-030-2--1---
-42--30-0----30
---20-1--1-00-1
-03---20-2--00-
224-200-1-00-0-
-1----0--00---0
-----------0-0-
10110-0---0----
1000---0-------

*** Life<FredkinCell> 15x15 ***

Generation = 0, Population = 23.
--------0------
------0----00--
-----0---0-----
--------0--0---
---------------
------------0--
-0-------------
----0-----0----
---------------
-0-------------
---0---00--0---
-0----0--------
----0----0-----
--------0----0-
---------------

Generation = 1, Population = 71.
------00-0-00--
-------0000110-
----0-----0-0--
-----0-0--0-0--
--------0--00--
-0---------0-0-
0-0-0-----0-0--
-0-0-0---0-0---
-0--0-----0----
0-00---00--0---
--0-0--1100-0--
0-0000--00-0---
-0-0-00---0--0-
----0--0----0-0
--------0----0-

Generation = 2, Population = 59.
-----01-010----
----0----112-10
---0----0--0---
---------010-0-
-0---0---0-----
----0---0--1--0
---0-----------
-10---0-0------
-1-0---00--0---
-0-10-0---0----
-0--1-0--11--0-
-0-11--------0-
--01--1-0------
-0--------00---
----0----0-----

Generation = 3, Population = 97.
-----12-12---00
------0-0-2--21
--0----0-00-0-0
-0-0-0--------0
0-0---0--1---00
-0-----0--0-00-
-0----0----0--0
0-10-0-010-0---
0-01--01-0--0--
0-----1-0-1--0-
0-00--1112-0010
010--0--000-010
-01--0---000-0-
0--00-0-0-110--
-0-0-0--0--0---

Generation = 4, Population = 66.
----02---3--0--
--0---101-32--2
-----0--01---0-
-------0--1-0--
--------0------
-1----0-0--11-0
-1-0---000-1---
11---------1--0
----0----1-----
-0---0--1---01-
-0-11------11--
-21-11---------
0----1--0----1-
-0--1---10--1--
---10--010-1---

Generation = 5, Population = 101.
--0013-0-----00
-0-0002---43---
--0-0--0-200---
-----00-0------
-0----0-1100--0
0200-0-0--0-2--
----0--111-----
2-100--01-0200-
0--1------00000
01010-10-----20
0-02-0--1-12---
--21--0-0--001-
-01-02101-----0
--0-2---2-1----
-002-0012------

*** Life<FredkinCell> 15x15 ***

Generation = 0, Population = 23.
-----0---------
---0---0--0----
---------------
---00----------
---------0--00-
----0--0-0--0--
00--0----------
---------------
-----------0---
-0----------00-
-0-------------
---------------
--------0------
----------0----
---------------

Generation = 1, Population = 76.
---00-00--0----
--0-000-00-0---
----0--0--0----
--0110---0--00-
---0---00100-10
00-0100--1001--
110010-0-0--0--
00--0------0---
-0--------0--0-
010---------110
010---------00-
-0------0------
-------0-00----
--------00-0---
----------0----

Generation = 2, Population = 71.
---1-0-1-------
-0-01---11--0--
-----0---0--00-
-012210--10-1--
00--0--1--1---1
--012110-211--0
2--1--0--1-010-
-1--1--0-0---0-
0---0----0---1-
---0------00--1
---0----0--0---
-1--------0-00-
-0----0---1----
--------1---0--
--------0------

Generation = 3, Population = 114.
-0020----0--0--
0---20--2-001--
--0-01-----0110
----321-0---2-0
1-00-00201--012
--123-2---2---1
---21-100-0----
0-0-20----00--0
----10-001-002-
0-01----0-1-1--
-1010--0-001-00
0200--0-0010110
010--0-00020-0-
-0----002000-0-
-------010--0--

Generation = 4, Population = 65.
-1----------10-
----3-00-1112-0
00--12---------
0------01------
--------12-0--3
00---1-0--311-2
2-0-20--1------
---03----------
-------112--13-
-1--00-01-2-211
0---10---------
---------------
----0------10--
-1----1---1-010
-0------2------

Generation = 5, Population = 113.
0-0-0-01-00--1-
0--04011-2---0-
-100-3--00001-0
1---3211---0--0
-0---0-2-311-14
-1---2--0-422-3
31-2--1--1001-0
0--1---0-0--00-
-0-0-00-23-0---
--01-----0---22
---1--000-0-000
0----0-----01--
-1-0-00----2--0
020-00-020-0--1
010---00-00-000

*** Life<FredkinCell> 15x15 ***

Generation = 0, Population = 24.
--0------------
0-----0---0----
------------0--
0---0----------
---0-0-----0---
-00----0--0----
0--0-----0-----
0--------------
0--------------
----0----------
0-----0-0------
---------------
----0----------
---------------
---------------

Generation = 1, Population = 57.
00-0--0---0----
-00--0-0-0-00--
----0-0---00-0-
-0---------00--
00--0-00----0--
-110-00-0------
1---0--00------
-0-0-----0-----
10--0----------
---0-00-0------
-0--00---0-----
0---0-0-0------
---0-0---------
----0----------
---------------

Generation = 2, Population = 54.
1-0-0-------0--
--1---------1--
--00-0----11--0
-10----0-------
11---0-1----10-
0--1-1--10--0--
-000---1-------
01--0--0--0----
2-00--0-00-----
0-0---1--------
--0---0-0-0----
----1----------
0-0-----0------
---------------
----0----------

Generation = 3, Population = 95.
--1--0-----010-
00--00----0-200
--11--00-022-0-
------010-00000
---001-2-0-0-10
11-2-20021001--
1----002-00-0--
--00-0-1---0---
-0-1-01011-----
1----0-0-00----
0010001----0---
0--0-00---0----
---00--0-0-----
0-0-0---0------
---0-0---------

Generation = 4, Population = 67.
1--0-10----12--
111-1--0--1---1
0-22----01----0
--0-0---1------
110------1-----
-2-3031---11--0
2-0-01130---10-
0-1------------
--02-1-----0---
200----10-1----
1--1-----00-0--
1--------------
--------0------
----1----------
0---0-0-0------

Generation = 5, Population = 97.
2---021----2300
2-----------202
10330----2---01
---0-0-120----0
22---10----0--0
13-414--2-22---
3010-22-100-21-
1---0-010--000-
--13--101---0--
---0-012102-0--
----0--0-1---0-
20-0----000-0--
0---0--0-0-----
0--0200--------
-0-01----0-----

*** Life<FredkinCell> 15x15 ***

Generation = 0, Population = 22.
----00---------
-----------0---
---------0-----
---------0-----
00--0----------
-----0--0------
---------------
----------0--0-
--------00-----
---------------
--00-----------
-----0---00----
------0--------
--0----------0-
---------------

Generation = 1, Population = 73.
---0110----0---
----00---00-0--
--------0100---
00--0---010----
1100----00-----
00----00-0-----
-----0--0-0--0-
--------0--00-0
-------011---0-
--00----00-----
-01100---00----
--000---0110---
--0----0-00--0-
-0-0--0-----0-0
--0----------0-

Generation = 2, Population = 66.
--012210-0-----
-------------0-
00---0-0---1---
-----0-01------
2--1--0--1-----
---0--11-1---0-
00--0---10-----
-----0-----11--
--00--01--00---
-----0---1---0-
01--110-01-----
--11----1--100-
--100---0------
0---00---000---
------0--------

Generation = 3, Population = 125.
-01----1--0--0-
00000-0--0-00-0
110-01-1--0-00-
-0-0010-2--0---
-1020-10-20--0-
-001-0-20-0-0-0
110---0-2-0000-
0000---000--20-
-01100121-1--0-
0000-100-2-00-0
12--221---000--
0---0000--12-10
00-1---01-0-00-
-00--1---1-10--
0---0--0-000---

Generation = 4, Population = 58.
----2---0------
-----0-00--1---
----1--------1-
-----2----0----
221------3-----
-1--0----1-01--
--10-----0-----
-----00--10--10
01---12-----01-
--1--2--0----0-
2-----20-------
-0---11--12---1
--1-----201----
0-1---0--2-----
--00--0--------

Generation = 5, Population = 109.
---1----10-0---
----0--1-00-00-
---0-1-10-010-0
000---0----0-0-
332200--04-00--
-20--0--0--120-
--21-00-2--0000
00000--00-11--1
12--02-2111012-
---0030--2---10
--1--2-1-10--00
----02-----2-1-
0-21-0-03--0--0
-----110-3-----
00-10010-0-----

*** Life<FredkinCell> 15x15 ***

Generation = 0, Population = 23.
---------0-----
---------------
-0-------------
---------------
00-0-----0-----
----0----------
-------------0-
-0-------------
-0-------------
---------0-----
-0---------0---
-------0--00-0-
-0----------0--
-------0-00--0-
---------------

Generation = 1, Population = 60.
--------0-0----
-0-------0-----
0-0------------
0--0-----0-----
11------0-0----
00---0---0---0-
-0--0-------0-0
010----------0-
010------0-----
--------0-00---
0-0----0-0-100-
------0-001-0-0
0-0------0---0-
-0----0--110--0
-------0-00--0-

Generation = 2, Population = 55.
-0-----0-0-0---
---------------
10-------------
----0----------
2-00-0-0---0-0-
-10---0--------
0--0-----0-0---
---00----0-----
-2-0-------0-0-
-0--------1--0-
---0-----1--11-
-----0-01-201--
-0-0------00--0
-----0--022100-
-0----------0--

Generation = 3, Population = 90.
0-0---0-----0--
0------0-0-0---
210-0----------
-00----0---0-0-
-1-10-0-0-0---0
02-0-----0---0-
---1--0-01--0--
010110--010--0-
03-1-----0---10
010-----------0
-00-00-0--0---0
-0--0--120-1--0
0---0--0--110--
---00-001-3211-
0-0--0--000-1--

Generation = 4, Population = 65.
1--0-0---0---0-
----0----------
-2---0---0---0-
-1-------------
--0-1--0-0---0-
1-------01-----
---------2-0-0-
-2---1-0--10-1-
14-2-0---1--0--
----00-0-01----
-1---1-1-----1-
-1-0--02-1-2-01
-----0--0-----0
---1-011-243-20
-----------02--

Generation = 5, Population = 111.
-00-0-0-0-0-0-0
00---0---------
230---0-0-0-0-0
02--00-0-------
2----00-010-0-0
-20-0---1200---
00---0-0-301-10
-30112--012-020
2---0-0-020----
0---11-1--2000-
0200-20-0-0112-
02--001-2------
-0--0100-01--0-
--0----213--13-
---0-000-0--3-0

*** Life<FredkinCell> 15x15 ***

Generation = 0, Population = 24.
-0-------------
0-------0---0--
--0-0--0-0-----
---------00----
---0--------0--
---------------
--0----------0-
--------0------
-------0-------
--------0--0---
---------------
0---0--0-------
-0-----0-------
--------0------
---------------

Generation = 1, Population = 63.
--0-----0---0--
--0-0------0-0-
00---00-01--0--
--000--00-100--
--0-0----000-0-
--00--------00-
-0-0----0---0-0
--0------0---0-
------0-0--0---
---------00-0--
0---0--00--0---
---0-0010------
--0-0-01-------
-0-------0-----
--------0------

Generation = 2, Population = 75.
-0100--0-0-----
0-1---0--00---0
11000110-2-01--
0------1---1---
-0--10-0-11--10
--------000----
0--10--0---01--
------0-0-00---
--0--0---0---0-
0---0-00011--0-
-0-------------
0----11--0-0---
---0-0---0-----
0---0-00--0----
-0-----0-------

Generation = 3, Population = 123.
-12-10---1----0
1--0--10011-00-
2-1---2--30-200
1000----0--2-00
--0021-10---021
00-0-0-011--000
-00210--000-20-
0-000--0-01--0-
00-0--000100010
--00-01--220010
0-0-00-00-00-0-
---00-2101--0--
--0-010101-0---
-----01-0--0---
--0-0--10-0----

Generation = 4, Population = 65.
-23021-0-2--0--
2-1-----------0
-120-13-0--0---
-----00-1----11
-0------1-----2
1----------01--
0-1-2-00-----1-
1------1-12-0--
-1-----1---11--
----0--00---1--
--1----------1-
0-011------0---
-0-0-2-2---1---
----0------10--
-0-----2-------

Generation = 5, Population = 108.
-34--2----00-00
---00-1001-000-
-231----130-20-
--000----0-202-
--0--10121-00-3
2-0-0-001-012-0
------1-00002-0
2-0-0----2301--
--0-0-0--1-221-
-000-01-12--2--
002----00--0--0
-0-22--1--0100-
--01----0-0----
----------0-10-
0-0-0-0-0--00--

*** Life<FredkinCell> 15x15 ***

Generation = 0, Population = 24.
00--------0----
--0----0-0--0--
---------------
-----0-------0-
-----0-0-------
---------------
------------00-
------0----0---
-------0-----0-
---------------
----------0----
-----0---------
-00----00------
------------0--
---------------

Generation = 1, Population = 70.
11-----0---00--
0--0--0----0-0-
--0--0-0-0--00-
----0100----0-0
----01--0----0-
-----0-0----00-
------0-----110
-----0----0----
--------0--00-0
-------0--0--0-
-----0---0-0---
-00-0-000-0----
0110-00110--0--
-00----00--0-0-
------------0--

Generation = 2, Population = 72.
-200----0-0-1--
1---0--0-001-10
00---1-1--0----
--00-----0-01--
---0-2-0-0--01-
-----10----0-1-
-----0----00-21
----0---00---0-
-----0---00110-
-----00----0---
-00---------00-
---0---1----0--
1--1011--1-----
-----0----0---0
-00----00------

Generation = 3, Population = 112.
-3-1-----010--0
200---0101-2021
-1-0---20010000
0-1-0---0101---
---1-30--100--0
---0021--0-10--
-----1--0-1--32
---0-0-01-0----
-----1-----2--0
-00-0-10-0-10--
011--000-----10
00-1-0--00-01--
-11--22-1---0-0
0000-1-00--0-0-
0110-001100---0

Generation = 4, Population = 82.
-40-0-00------1
3-10-01212-3132
02--------2-11-
-0----0----2-0-
0--2---0-211-1-
--0----0-1--1--
--------102--43
--0----1--1--0-
-000-2--00-3-0-
------------1--
------1-----021
-1----0--1-1---
12-10331---010-
--------1---0-0
-22----22-1----

Generation = 5, Population = 122.
-5-1-0---0-01-2
4--10123-30424-
---0-1-20----2-
0110-1---1031-0
----0--1----020
00----110-0--10
-------021-0--4
--1--00-102-0--
0111--0-110-110
-000-01-00--200
-1---020-0----2
-2010---0--21-0
2--2--42-10-21-
0-000100200-10-
0330--03---00-0

*** Life<FredkinCell> 15x15 ***

Generation = 0, Population = 22.
-----0---------
----0---0------
----0----0-----
---------------
-------------0-
-0-------------
---------------
0---0-------00-
00-------------
---00----------
------------0--
00--0----------
------0--------
---0----0------
---------------

Generation = 1, Population = 68.
------0-0------
---01--0-------
---010----0----
----0----0---0-
-0----------0-0
0-0----------0-
00--0-------00-
1--0-0-----0110
-100--------00-
000110------0--
00-0-------0-0-
1100-00-----0--
00-000-00------
--0-0-00-0-----
---0----0------

Generation = 2, Population = 63.
---000-0-0-----
--0-------0----
--0--100---0-0-
-0--1---0------
----0----0-0---
1--00-------01-
11-----------1-
20-10-0---01--1
0-11--------1--
--1--10-----10-
11----0---0---0
2--10-1-0------
----1---1---0--
0---101---0----
------0--------

Generation = 3, Population = 89.
---1-1---------
-01-1-0------0-
--10-2-1------0
0--02-0------0-
00---0-------0-
2-01-0---0--1-0
2-0---0---00-2-
3-0-1--0-012---
11---0----0-2-0
--2-12-0--00-1-
-2-00--000-00--
3-02--2-100-0-0
-------02000-0-
-0-0---000-00--
0---0-10--0----

Generation = 4, Population = 57.
-0--0--------0-
01----------0--
0-------0----0-
1---3-------01-
11---1---0---1-
-0-2-1--0------
----0----0--0--
-01------1---11
-21-010------0-
00-1---1-------
--------1-----0
-11--0--2---10-
000-------1----
-------11---1--
------2-----0--

Generation = 5, Population = 103.
-101-1--------0
--1-1---0--0-0-
----1--1-0--010
---0----00-0120
--00-20---0--20
-1--0200-0--11-
--0------100--0
3--1-00-021---2
-3-11-1--0--21-
1-2--2-------10
1-00-0--20--0--
---20-20300021-
11-0-0-0-0-0-0-
000----2200020-
-----0--0--010-

*** Life<FredkinCell> 15x15 ***

Generation = 0, Population = 22.
--0----0---0---
-----0-------0-
0-0----------0-
---------00----
---------------
---------------
-0-------------
-----0---------
---------------
--0-------00---
----------0----
---------------
-------0--0--0-
--0-0----0-----
---------------

Generation = 1, Population = 68.
-0-0-00-0-0-00-
0---0-00---0010
---0-0---00-010
0-0-----0110-0-
---------00----
-0-------------
0-0--0---------
-0--0-0--------
--0--0----00---
-0-0-----0-10--
--0------01----
-------0-----0-
--0-0-0-0--00-0
-0---0-00----0-
--0-0----0-----

Generation = 2, Population = 63.
----01-0---0---
---0---1-001---
----0--0-------
-----0-01--101-
000----------0-
-----0---00----
---0-----------
--00---0--00---
-0--------1----
0---00--01--10-
-------00-2-00-
----0----000---
-----0--10011--
0-0-0-01---0---
-------0--0--0-

Generation = 3, Population = 110.
----12-100-10--
--0-000--1--0--
------0--00-01-
000-----2112--0
1-10---00000-10
00000-0-0110-0-
---100-0-0-0---
--1-0-0-00-10--
---000-00-2-00-
---0110--201--0
0----001--30--0
---0---00---00-
0-0-0---211-20-
-----01--001-0-
0-0-0--100--0-0

Generation = 4, Population = 64.
--00--02---2-0-
-0---1---------
00--0-10-1-0-2-
------0------11
--2----1---1---
--1--0----21-1-
000--1----0--0-
-0--------0----
-------1--3--1-
0-0-2--0-3----1
-0----1-------1
-----0---------
---0--0--2-1-10
----012-0112-1-
-------2-----0-

Generation = 5, Population = 105.
--111-130-0---0
-1-0--0--1-----
1-00-0-1-----3-
000-0010-1--0-2
-030-0--0--20-0
0--00100-1---20
11-1020--0--010
-1---0-0-0-1---
000-0-020-400--
-0---1-1------2
----0----0---02
-0-00-0--0-0-0-
--0--010-312--1
----1--112-----
----00---000010

*** Life<FredkinCell> 15x15 ***

Generation = 0, Population = 23.
-0-------------
----0----------
---0-----------
0----0---0-----
0--00----------
---0----0-0-0--
------------0--
----0----------
-------0----0--
0--------------
----------0----
-------0---0---
---------------
0-0------------
---------------

Generation = 1, Population = 61.
0-0-0----------
-0---0---------
0-0--0---0-----
10----0-0-0----
100-1---000-0--
0-01---0----10-
---00---0-0010-
---0-0-0-------
0---0-0-0--0-0-
-0-----0--0-0--
0------0-0-----
------0-0---0--
0-0----0---0---
---0-----------
0-0------------

Generation = 2, Population = 64.
-0-------------
0-0--10--0-----
1--001---------
2-0-0---1-100--
21-0-00-----1--
10--0-0-00--2-0
0--11--0--1-2-0
0-01--0-0-0-0--
-----0---0--0-0
0-0-0--1---0---
-------10------
--0--0-------0-
----------0----
--0-0--0---0---
---------------

Generation = 3, Population = 94.
-----00--0-----
10----100-0----
-0011---00000--
-0--1000--2--0-
3-0--1-0-00--00
2-01101011-0--1
-----00-0-2---1
1-1----0-01--0-
---0---0----1--
------02-00---0
0---000-10-0-0-
-0-00-000-0-0-0
----00-0-0---0-
-0---00-0---0--
--0-0--0---0---

Generation = 4, Population = 61.
00--01---------
2--00-----1-0--
-1-----0----1--
-10--1---0---1-
411-1---0---1--
3-----212---2--
---1----1-3---2
-----0-101-0---
0---0---0--0--0
0--00---0-1-0--
------1-----0-0
---11--1---0---
-------1----0--
0---0-1--------
----------0----

Generation = 5, Population = 109.
-10--20---0-0--
3001---0-0--10-
-2-1110-00002--
-2-0--00--2-0-0
-2----0-1--02--
4-01103-3100301
0-0-1000-0--20-
1--1---2-2110--
10--1------1-0-
1001-0021--010-
0----0--1-0-1--
--0220-20-0-0-0
0--0---20----0-
-0-0------0-0--
0---0-0--0-0---

*** Life<FredkinCell> 15x15 ***

Generation = 0, Population = 23.
--0------------
---0-0---------
----0--------0-
-------------0-
---0------00---
---------------
--0---------0--
--0---0-0---0--
-------0-------
------------0--
--0------------
---0-----------
-----0---------
0---0--------0-
---------------

Generation = 1, Population = 64.
-0---0---------
----0-0------0-
------------010
---00-----00010
--0-0----01100-
--00------000--
-010--0-0--010-
-010-0-0-0-010-
--0------------
--0----0---0-0-
-0----------0--
----00---------
0--0--0------0-
-0-0--------0-0
0---0--------0-

Generation = 2, Population = 64.
0-0----------0-
-0-0-0-0-----1-
---0--0---0----
---1-0-----1---
-01-10--01-----
--1---0-0---10-
0--10--0---1--0
0-----0-0---2-0
-----0---0--0--
--10--0-0-0-0-0
0---00-0-------
00--11------00-
--01---0-------
0--1--0----0---
-----0---------

Generation = 3, Population = 103.
-0---0-0----010
--01--0-0-0-020
-00-00---0---1-
-0-201--00--0--
01-02--0-21100-
0-2----01---21-
10-2100-0-0-1-1
10-00--0----3-1
0-000-0-0--0-0-
0021-0-0-0--1--
1-0---0---0--00
-1----0----0110
--1--0--0--000-
-0-20-----0-0--
0--00------0---

Generation = 4, Population = 72.
0--00-0---00-2-
-0-2-0-0-0-----
0-------01--02-
--0---0-11--11-
--1---01------0
---0-0------3--
2-1-2-1-1----02
2-111-0-0-0-402
-----0----0----
1---0---0----00
2-1---1-----0--
--0---100---2--
-0-----0-0-----
--0-----00--1--
--0--0---------

Generation = 5, Population = 113.
--0-10----11--0
0--30-0-01-00--
--00-00--200--0
0012-110--01---
-12----2-2-----
0-2-0-001--0---
3-2-302-200-1--
3----01-1-1-51-
--000----0100--
2021--00-00--11
3-20002----01-0
0-10-1-11--031-
0-1----1-10----
--12-0--1-00-0-
-0100-0-00--0--

*** Life<FredkinCell> 15x15 ***

Generation = 0, Population = 24.
------------0--
---0-0-----0---
---------------
----------0-0--
0----0--0----0-
------0----0---
---------------
-0-------------
----00-----0-0-
----0--------0-
---------------
----0--0-------
---------------
---0-0----0----
---------------

Generation = 1, Population = 68.
---0-0-------0-
--0---0---0----
---0-0----000--
0----0--00-----
-0--0--0-000--0
0------00-0-00-
-0----0----0---
0-0-00-----0-0-
-0-0-10---0--10
---01------0010
-------0-----0-
---0-00-0------
---000-0--0----
--0---0--0-0---
---0-0----0----

Generation = 2, Population = 76.
----------0-0-0
-0-0-0-0-01-00-
0----1--0---10-
---0-10-1-0-0-0
0-00--01--11---
-0--0---101-11-
0---0---0--1---
---01-0----1-1-
--01--10-0-0-2-
-00-2-00---1---
----00-----0-1-
--010-1--00--0-
---------------
-0-000--0---0--
---------------

Generation = 3, Population = 106.
-0-0-0-0--1-10-
-----1--01--1--
----0---1--02--
---1---02-1010-
-01----20-22000
0---100-----220
-----0001--2---
0-----1-000--20
----012------30
01-030--000-0--
-0--1100-0-1-20
-01--0-0011-010
-00--00-000-00-
0--1-100-0-0-0-
-0-000--0---0--

Generation = 4, Population = 63.
0----1-------10
-0-0-20--2-----
------------3--
-0----0-3------
-12-00-----3---
--0021-0--10-3-
---------------
-0--10-0--1-0--
-0---2-0-------
1--1-10-1111-1-
---------------
01-1----1--0---
----01-----0-1-
-0-20211-10--10
---------------

Generation = 5, Population = 109.
---002---0--121
------100-1-100
---0-1--10-0-0-
01--0----0-01--
0--0---20--400-
----3---102---0
-000-------200-
01002--100---2-
-101--21-0-003-
--0---102--2--0
-0---10--00--2-
12---0-0-11101-
0--0---000-1-2-
0--313-2-21-0-1
-0-00000-00--00

*** Life<FredkinCell> 15x15 ***

Generation = 0, Population = 21.
-----0---------
----------0----
---------0-----
0--------0-----
-0-------------
-0-------------
---0-0-0-------
0----0---0-----
----0------0---
-----0----0----
-0---------0---
---------------
---------------
--------0--0---
---------------

Generation = 1, Population = 57.
----0-0---0----
-----0-----0---
0-------01-----
--------010----
-10------0-----
0100-0-0-------
000--1--00-----
-0-0-1000-00---
0--0-0---0--0--
-0----0--0-0---
0-0--0------0--
-0---------0---
--------0--0---
-------0-00-0--
--------0--0---

Generation = 2, Population = 66.
---0-0-0-0-----
0-------00--0--
-0---0-0---0---
000----0--10---
-----0-0-1-----
---1-1---------
---00--0-1-0---
0101-2----11---
-001-100-1-0-0-
0--0-0-001--0--
---00----0-0-0-
-----0--0-01---
-0---------1---
------0--11--0-
---------------

Generation = 3, Population = 118.
0-0-----010-0--
---0---01-0--0-
01--0--1-1-1---
1110--0-0-2-0--
010001-1---0---
--02020----0---
00-1110---010--
121203---02200-
0-12-2--02010-0
----010--200-0-
0-0-10-001010-0
-0-0--00-01200-
0-0--00-000200-
-0---0-0022-0-0
------0--00--0-

Generation = 4, Population = 50.
---------------
-0----0---1---0
---0-0-2-----0-
2-2-0----1---0-
-2--1------1---
-1-------------
---2---0-------
232-14-------1-
10-----01------
------1-03-1--0
-0-0-----------
0----0---1-----
----0------3---
----01-11-301--
-0---------0---

Generation = 5, Population = 104.
-0----0---0---0
0-00-----0-0---
01--0-0-010-01-
-1-01--00-20010
-3-021---10-00-
02020--0---0---
0----10-0----0-
-432250-0---0-0
----02-1---1-00
0--0-1-0-4--00-
----100-0--1--0
---0--0-0-12---
0--010-000-4---
-0-0-2-22-4-20-
0-0-00-00--1---

*** Life<FredkinCell> 15x15 ***

Generation = 0, Population = 23.
----------0----
-0----00----0--
---------------
-0-0-----------
----0----------
0-----------0--
---------------
---------------
-----0------0--
--00-00--------
----0---0------
0--------------
-0-------------
-0--0---0------
---------------

Generation = 1, Population = 67.
-0----00-0-00--
0-0--0110-00-0-
---0--00----0--
0--------------
00---0------0--
-0--0------0-0-
0-----------0--
-----0------0--
--0001-----0-0-
-0110-100---0--
0-0---00-0-----
----0---0------
-10-0---0------
0100-0-0-0-----
-0--0---0------

Generation = 2, Population = 65.
--------0-0-1--
-0--01--101---0
----0-----0----
1--0-000-------
--0---0--------
0100------0---0
----00------1--
0-00-10-----1--
---11--00-0---0
-1-2-0-11------
-01--0----0-0--
00-0100-1------
---01---1------
1-11------0----
-1-------------

Generation = 3, Population = 112.
-0--00-0101--00
0-00-211--2000-
00--10000-10--0
-0--01110-0----
--10--1---0---0
1-11-00--0-000-
-0-01-----00200
--1---1-0-00200
00-221-----000-
021301---0--0-0
-120---0-0---0-
1-0-211-200-0--
-1-1--00200----
-12-----00-0---
---0------0----

Generation = 4, Population = 63.
----1-0-------1
1-11-3221-31--0
----------2----
-1---2-2-------
0----0--0-1-0--
-1-201-00---1-0
----2---0------
00-0-----------
----3---00----0
--2-1-11110-1--
0---0---0---0--
--1-3----------
-2----------0--
1-31--0-----0--
-1--0---0------

Generation = 5, Population = 109.
0-0--01-1-10-02
--22043-2--2001
0000--0-003---0
--0-03------0--
-0-0--101---100
---31--110002--
0--03---10--2-0
11--0----0----0
000-410-----00-
02----2--21-200
-1-0-00-1-0010-
1---41--2------
--011-0----010-
--42-0-00--010-
-----000-0--0--

*** Life<FredkinCell> 15x15 ***

Generation = 0, Population = 24.
-0------00-0---
---------------
0----0---0--0--
---------------
---------------
---------------
-0-------------
-----0--0------
----------0-0--
----0----0--0--
---------------
0---------0--0-
-----0---0-----
----0--0--0----
---------------

Generation = 1, Population = 70.
0-0----011--0--
00---0--0--00--
-0--0-0-0-00-0-
0----0---0--0--
---------------
-0-------------
0-0--0--0------
-0--0-00-00-0--
----00--0---10-
---0-0--0--010-
0---0----00-00-
-0---0-----00-0
0-----000-0--0-
---0--0-0--0---
----0--0--0----

Generation = 2, Population = 74.
10-0-001220-10-
---------------
0100----101---0
---------------
00---0---0--0--
-----0--0------
---0------0-0--
---01-11-11-1--
-0------1-0-2-0
0-0--1001--1-10
-----0---11-1--
0-0----00001---
---0-------0---
0-0--01-100-00-
-----0---0-----

Generation = 3, Population = 114.
21---1----1-210
--0--000----000
1--10--02-20-0-
--00-0--0-0-0-0
110-010---00-0-
00-00100--0----
--01-0000-1-10-
-00-2-22022--00
---000-02010301
-0-00-----0--2-
----01--0-----0
-----001-11----
--0-0000--01-0-
----0-2-2110110
0-0-01---1--00-

Generation = 4, Population = 74.
32--02-1-2---2-
---------------
-10-10-----1-10
-----1--1------
-2------00110--
----1----0--0--
00-------0--2--
01--3----33-11-
-----10-31-----
0---11-0--1--30
-0-------------
--0-011-02---00
-0---1---01-01-
0--0--3032212-1
-----2---2-----

Generation = 5, Population = 102.
430013----1-2-0
0-0----0-0-0--0
121-2-0-2-2--21
--0--2002-0-000
1-0-01-0-1---0-
0--0-1-------0-
--0-----0--0---
--00--2--44--20
-0--0-104-1-3-1
---02-0----1141
------00011----
-0--122-1-----1
---0-20001-1--0
--0-004---3--1-
0--00--0-3-00-0

*** Life<FredkinCell> 15x15 ***

Generation = 0, Population = 25.
---0-----------
-------------0-
---------------
--0---0------0-
----0--0--0----
-0--0----------
------------0--
---0-----------
-------0-------
--------0-0----
--0---0--------
---0--0----0---
-------00------
0-0-0----------
---------------

Generation = 1, Population = 74.
--0-0--------0-
---0--------0-0
--0---0--------
-0-000----0-0-0
-00010--00-0-0-
0-0010-0--0-0--
-0-00------0-0-
--0-0--0----0--
---0--0---0----
--0---0----0---
-0---0100-00---
----001-0-0-0--
0-000--110-0---
-----0-00------
0-0-0----------

Generation = 2, Population = 55.
-0-0-0---------
--0---0----0-0-
---00--0--0----
01--1---0--0-0-
--1--10-11-----
-------------0-
----1---------0
----10--0-0----
--0--01--0--0--
--------0-010--
0--------------
000--1---01--0-
--1--0---10----
---00------0---
-------00------

Generation = 3, Population = 95.
0-0--------0-0-
---00---------0
00-1-0---0-0---
12--2-0-1-----0
0--0-21--200---
--0-100-00--0--
---02---0-0----
--00---0-0-00-0
-0-0--200-0-10-
0-0--000-01--0-
1-0--0--00-000-
---0021-0--00-0
0-2--10-1----0-
---11--000--0--
---00-0110-0---

Generation = 4, Population = 66.
----0-----0----
-0--1----0-----
---2--------0--
2-00--1--00--0-
1-----201--1--0
00---1----0--0-
--0---0-1-----0
--11---1---1-0-
---10---1-10---
101-0-1-----0-0
2-1---1---0-1--
--01------1----
---00--1---00--
0-----0---0----
--0---122------

Generation = 5, Population = 103.
-0-010-----0---
0-0-20--0---0--
00-3--0---00---
3-1-202--11----
--10----2-0-00-
-1--1-00-0--0-0
0-1----0-000-0-
-0------0--2---
000--02---2--00
---01-200---1--
30--0020-01-200
00----10-02----
0---11--1-0110-
-001101000--0--
00-0-0--300----

*** Life<FredkinCell> 15x15 ***

Generation = 0, Population = 25.
-------0--0----
---0----00---0-
---------------
0-----0--------
---------------
---------------
------0--------
------------0--
-----0-----0---
---0-0----0----
----0-----0--0-
-----0--00-----
0---------0--0-
------0--------
---------------

Generation = 1, Population = 64.
---0--0----0-0-
--0-0---11--0-0
0--0--0-00---0-
-0---0-0-------
0-----0--------
------0--------
-----0-0----0--
-----00------0-
---0010--------
--0-010--01--0-
-----0--0-100-0
0-----00110----
-0---00-0--00-0
0----0-0--0--0-
------0--------

Generation = 2, Population = 64.
-----0-0000-0--
00---0-0--0----
-------0--0----
0-000----0---0-
------1--------
0-----1-----0--
----01--0--0---
---0-1--------0
---11-10-00----
-0-0---0-1-----
0-0--10-1-2-10-
-----0-----0---
0-0-0---1-0110-
----01---0-----
0---------0--0-

Generation = 3, Population = 114.
00--01-------0-
110-01-----00--
-00000010-10-0-
--1-10000---0-0
--000020-0--00-
-0--0-200----0-
0---1--0-00---0
--01-2-00000-0-
-002212---10--0
--01-101021-00-
-0--0-10-0-0210
-----1----010--
----10-0-012-10
--00-20---000--
-0--00-----00-0

Generation = 4, Population = 68.
---0--0----0--0
---012-01---10-
------12--2----
----2-----0-1--
-----1-1--00---
-----0--100--1-
--0-2--------0-
0----30--1----0
01-----0-02--0-
-0-----2-3----0
0-------11---21
-0--02---1---0-
--0-210--1-3-21
--11-31--------
0---1----------

Generation = 5, Population = 93.
--01----0-0----
--0--3--210-21-
---0--2--030-0-
---0--0--0-0-0-
-----2----11-0-
--0--12-2---020
00---10-0-0-01-
1-0--41-02---0-
--0--1-1-1300-0
010---030----01
-0--01--222-2--
---0------010-0
--10---012----2
00-2---0-0-0-00
-00---0--------

